{"content":[{"id":"403d89a7-423f-43e2-9d5a-956074eb3f4d","anomalyId":"af4a969a-e84a-402b-90c3-8f7565f23ed0","serviceName":"user-service","rootCauseSummary":"Service 'user-service' experienced an error rate spike with 50 errors detected within the monitoring window. This typically indicates a code regression, dependency failure, or infrastructure issue. The error rate was 1.0x above the configured threshold.","aiAnalysis":null,"timeline":null,"contributingFactors":["Error rate exceeded threshold: 50 errors in detection window (threshold: 50)","Service: user-service","Anomaly window: 2026-04-18T19:28:08.529196920Z to 2026-04-18T19:29:08.529206951Z"],"recommendations":["Check recent deployments to user-service — error spikes often follow bad deploys","Inspect stack traces in error logs for common exception types","Verify downstream dependencies (DB, cache, external APIs) are healthy","Review circuit breaker state for user-service","If spike is sustained, consider rolling back the last deployment"],"affectedServices":[],"status":"COMPLETED","generatedBy":"RULE_BASED","confidenceScore":0.75,"createdAt":"2026-04-18T19:29:27.617996Z","updatedAt":"2026-04-18T19:29:27.837841Z"},{"id":"87d6d696-de4b-470e-b8d1-58417b88cc9c","anomalyId":"1c8205bf-2adf-4315-96a5-9f3fb57edb7f","serviceName":"user-service","rootCauseSummary":"Service 'user-service' is reporting that a downstream dependency is unavailable. This indicates a network connectivity issue, a crashed upstream service, or an open circuit breaker. Immediate investigation of the dependency chain is required.","aiAnalysis":null,"timeline":null,"contributingFactors":["Service reported connection refused or upstream unavailability","Affected service: user-service","Error message: Database connection timeout"],"recommendations":["Verify the downstream dependency is running and reachable from user-service","Check Kubernetes pod status and restart counts for the dependency","Review network policies and firewall rules between services","Check if Resilience4j circuit breaker is OPEN — may need manual reset","Inspect health check endpoints of all dependencies","Scale up the dependency if it is under resource pressure"],"affectedServices":[],"status":"COMPLETED","generatedBy":"RULE_BASED","confidenceScore":0.85,"createdAt":"2026-04-18T19:29:18.615701Z","updatedAt":"2026-04-18T19:29:26.017324Z"},{"id":"62e0aa26-3c2d-4419-95b1-843c28fd6f97","anomalyId":"c4ddb82f-383a-41cc-9be7-121454b3093f","serviceName":"user-service","rootCauseSummary":"Service 'user-service' experienced an error rate spike with 50 errors detected within the monitoring window. This typically indicates a code regression, dependency failure, or infrastructure issue. The error rate was 1.0x above the configured threshold.","aiAnalysis":null,"timeline":null,"contributingFactors":["Error rate exceeded threshold: 50 errors in detection window (threshold: 50)","Service: user-service","Anomaly window: 2026-04-18T19:28:05.817260001Z to 2026-04-18T19:29:05.817359454Z"],"recommendations":["Check recent deployments to user-service — error spikes often follow bad deploys","Inspect stack traces in error logs for common exception types","Verify downstream dependencies (DB, cache, external APIs) are healthy","Review circuit breaker state for user-service","If spike is sustained, consider rolling back the last deployment"],"affectedServices":[],"status":"COMPLETED","generatedBy":"RULE_BASED","confidenceScore":0.75,"createdAt":"2026-04-18T19:29:18.615658Z","updatedAt":"2026-04-18T19:29:26.017139Z"}],"pageable":{"pageNumber":0,"pageSize":3,"sort":{"unsorted":false,"sorted":true,"empty":false},"offset":0,"unpaged":false,"paged":true},"totalPages":30,"totalElements":90,"last":false,"first":true,"numberOfElements":3,"size":3,"number":0,"sort":{"unsorted":false,"sorted":true,"empty":false},"empty":false}