{"content":[{"id":"0ebfc4b1-db0b-48f8-9c70-4806a307e64b","anomalyId":"77a97bf8-9c70-4769-8582-6eccc5bfdec1","serviceName":"checkout-service","rootCauseSummary":"Service 'checkout-service' experienced an error rate spike with 50 errors detected within the monitoring window. This typically indicates a code regression, dependency failure, or infrastructure issue. The error rate was 1.0x above the configured threshold.","aiAnalysis":null,"timeline":null,"contributingFactors":["Error rate exceeded threshold: 50 errors in detection window (threshold: 50)","Service: checkout-service","Anomaly window: 2026-04-18T19:53:22.770804558Z to 2026-04-18T19:54:22.770814280Z"],"recommendations":["Check recent deployments to checkout-service — error spikes often follow bad deploys","Inspect stack traces in error logs for common exception types","Verify downstream dependencies (DB, cache, external APIs) are healthy","Review circuit breaker state for checkout-service","If spike is sustained, consider rolling back the last deployment"],"affectedServices":[],"status":"COMPLETED","generatedBy":"RULE_BASED","confidenceScore":0.75,"createdAt":"2026-04-18T19:54:22.897662Z","updatedAt":"2026-04-18T19:54:27.844336Z"}],"pageable":{"pageNumber":0,"pageSize":1,"sort":{"unsorted":false,"sorted":true,"empty":false},"offset":0,"unpaged":false,"paged":true},"totalPages":96,"totalElements":96,"last":false,"first":true,"numberOfElements":1,"size":1,"number":0,"sort":{"unsorted":false,"sorted":true,"empty":false},"empty":false}